<?xml version="1.0"?>
<svg xmlns="http://www.w3.org/2000/svg" xmlns:xlink="http://www.w3.org/1999/xlink" xmlns:svgjs="http://svgjs.com/svgjs" version="1.1" width="512" height="512" x="0" y="0" viewBox="0 0 478.4 478.4" style="enable-background:new 0 0 512 512" xml:space="preserve" class=""><g>
<g xmlns="http://www.w3.org/2000/svg">
	<path style="" d="M238,72.8v334.8L56,336V220l97.2-1.6L238,72.8z M238,70.8L238,70.8L56,127.2L238,70.8z" fill="#b49a20" data-original="#926e43" class=""/>
	<polygon style="" points="153.2,218.8 239.2,70.8 56,127.2 0,221.2  " fill="#fad839" data-original="#d9ac80" class=""/>
	<polygon style="" points="238,70.8 238,407.6 420,336 420,220 325.2,218.8 239.6,71.2  " fill="#d8b71f" data-original="#a67e4f" class=""/>
	<polygon style="" points="325.2,218.8 239.2,70.8 422.4,127.2 478.4,221.2  " fill="#fad839" data-original="#d9ac80" class=""/>
</g>
<g xmlns="http://www.w3.org/2000/svg">
</g>
<g xmlns="http://www.w3.org/2000/svg">
</g>
<g xmlns="http://www.w3.org/2000/svg">
</g>
<g xmlns="http://www.w3.org/2000/svg">
</g>
<g xmlns="http://www.w3.org/2000/svg">
</g>
<g xmlns="http://www.w3.org/2000/svg">
</g>
<g xmlns="http://www.w3.org/2000/svg">
</g>
<g xmlns="http://www.w3.org/2000/svg">
</g>
<g xmlns="http://www.w3.org/2000/svg">
</g>
<g xmlns="http://www.w3.org/2000/svg">
</g>
<g xmlns="http://www.w3.org/2000/svg">
</g>
<g xmlns="http://www.w3.org/2000/svg">
</g>
<g xmlns="http://www.w3.org/2000/svg">
</g>
<g xmlns="http://www.w3.org/2000/svg">
</g>
<g xmlns="http://www.w3.org/2000/svg">
</g>
</g></svg>
